Experiment Data Exploration
…
cells_prep <- prep(cells_rec)
juice(cells_prep)

## # A tibble: 20,576 × 6
##    experiment_id initial_gfp end_gfp initial_length end_length status           
##    <fct>               <dbl>   <dbl>          <dbl>      <dbl> <fct>            
##  1 Chromosome          -2.25   -1.78        -0.380       0.779 Filamentaded.Ali…
##  2 Chromosome          -2.26   -1.74        -0.400       2.68  Filamentaded.Ali…
##  3 Chromosome          -2.26   -1.73        -0.400       1.71  Filamentaded.Ali…
##  4 Chromosome          -2.26   -1.78        -0.400      -0.570 Filamentaded.Ali…
##  5 Chromosome          -2.27   -1.77        -0.0997      4.19  Filamentaded.Ali…
##  6 Chromosome          -2.27   -1.75        -0.0997      2.91  Filamentaded.Ali…
##  7 Chromosome          -2.27   -1.76        -0.0997      2.00  Filamentaded.Ali…
##  8 Chromosome          -2.29   -1.78        -0.325       1.69  Filamentaded.Ali…
##  9 Chromosome          -2.25   -1.77        -0.364       1.38  Filamentaded.Ali…
## 10 Chromosome          -2.29   -1.80         0.0372      6.37  Filamentaded.Ali…
## # … with 20,566 more rows
…
cells_pred <- cells_res %>% 
  collect_predictions() %>% 
  mutate(correct = status == .pred_class) %>% 
  left_join(
    cells_df %>% 
      mutate(.row = row_number())
  )

cells_pred

## # A tibble: 46,547 × 15
##    id     .pred_Filamentad… .pred_Filamenta… `.pred_Not filam… `.pred_Not filam…
##    <chr>              <dbl>            <dbl>             <dbl>             <dbl>
##  1 Boots…             0.999            0.001           0                   0    
##  2 Boots…             0.366            0.634           0                   0    
##  3 Boots…             1                0               0                   0    
##  4 Boots…             0.273            0.727           0                   0    
##  5 Boots…             0.171            0.829           0                   0    
##  6 Boots…             0.413            0.458           0.00571             0.123
##  7 Boots…             0.401            0.108           0.0971              0.394
##  8 Boots…             0.701            0.299           0                   0    
##  9 Boots…             0.889            0.111           0                   0    
## 10 Boots…             0.285            0.497           0.00725             0.211
## # … with 46,537 more rows, and 10 more variables: .row <int>,
## #   .pred_class <fct>, status <fct>, .config <chr>, correct <lgl>,
## #   experiment_id <chr>, initial_gfp <dbl>, end_gfp <dbl>,
## #   initial_length <dbl>, end_length <dbl>
…
cells_prep <- prep(cells_rec)
juice(cells_prep)

## # A tibble: 2,808 × 8
##    experiment_id initial_gfp sos_gfp end_gfp initial_length sos_length
##    <fct>               <dbl>   <dbl>   <dbl>          <dbl>      <dbl>
##  1 Plasmid             -1.07  -1.09   -0.795          1.10       0.411
##  2 Plasmid             -1.07  -1.09   -1.31           1.10       0.411
##  3 Plasmid             -1.07  -1.09   -0.795          1.10       0.411
##  4 Plasmid             -1.07  -1.09   -1.31           1.10       0.411
##  5 Plasmid              1.26   1.29    1.13           1.35       0.758
##  6 Plasmid              2.28   2.10    2.19           0.380     -0.386
##  7 Plasmid              2.28   2.10    2.55           0.380     -0.386
##  8 Plasmid              3.13   3.21    1.81           1.70       1.26 
##  9 Plasmid              3.13   3.21    1.97           1.70       1.26 
## 10 Plasmid              1.07   0.853   1.44          -0.374     -0.468
## # … with 2,798 more rows, and 2 more variables: end_length <dbl>, survive <fct>
…
cells_pred <- cells_res %>% 
  collect_predictions() %>% 
  mutate(correct = survive == .pred_class) %>% 
  left_join(
    cells_df %>% 
      mutate(.row = row_number())
  ) %>% 
  mutate(
    survive = factor(survive, levels = c("Dead", "Alive"))
  )

cells_pred

## # A tibble: 6,775 × 15
##    id       .pred_Alive .pred_Dead  .row .pred_class survive .config     correct
##    <chr>          <dbl>      <dbl> <int> <fct>       <fct>   <chr>       <lgl>  
##  1 Bootstr…      0.594      0.406      5 Alive       Dead    Preprocess… FALSE  
##  2 Bootstr…      0.152      0.848      7 Dead        Alive   Preprocess… FALSE  
##  3 Bootstr…      0.916      0.0839     9 Alive       Alive   Preprocess… TRUE   
##  4 Bootstr…      0.0628     0.937     15 Dead        Dead    Preprocess… TRUE   
##  5 Bootstr…      0.772      0.228     20 Alive       Alive   Preprocess… TRUE   
##  6 Bootstr…      0.252      0.748     23 Dead        Dead    Preprocess… TRUE   
##  7 Bootstr…      0.0138     0.986     28 Dead        Dead    Preprocess… TRUE   
##  8 Bootstr…      0.476      0.524     29 Dead        Alive   Preprocess… FALSE  
##  9 Bootstr…      0.448      0.552     34 Dead        Dead    Preprocess… TRUE   
## 10 Bootstr…      0.961      0.0389    38 Alive       Alive   Preprocess… TRUE   
## # … with 6,765 more rows, and 7 more variables: experiment_id <chr>,
## #   initial_gfp <dbl>, sos_gfp <dbl>, end_gfp <dbl>, initial_length <dbl>,
## #   sos_length <dbl>, end_length <dbl>
…
cells_prep <- prep(cells_rec)
juice(cells_prep)

## # A tibble: 1,122 × 8
##    experiment_id initial_gfp sos_gfp end_gfp initial_length sos_length
##    <fct>               <dbl>   <dbl>   <dbl>          <dbl>      <dbl>
##  1 Chromosome         -0.618  -0.908  -0.863        -0.533      -0.612
##  2 Chromosome         -0.665  -0.717  -0.725        -0.558       0.407
##  3 Chromosome         -0.665  -0.717  -0.684        -0.558       0.407
##  4 Chromosome         -0.665  -0.717  -0.860        -0.558       0.407
##  5 Chromosome         -0.727  -0.898  -0.855        -0.190      -0.696
##  6 Chromosome         -0.727  -0.898  -0.745        -0.190      -0.696
##  7 Chromosome         -0.727  -0.898  -0.798        -0.190      -0.696
##  8 Chromosome         -0.854  -0.900  -0.876        -0.465      -0.654
##  9 Chromosome         -0.576  -0.788  -0.837        -0.513      -0.584
## 10 Chromosome         -0.851  -0.984  -0.942        -0.0231     -0.699
## # … with 1,112 more rows, and 2 more variables: end_length <dbl>, survive <fct>
…
cells_pred <- cells_res %>% 
  collect_predictions() %>% 
  mutate(correct = survive == .pred_class) %>% 
  left_join(
    cells_df %>% 
      mutate(.row = row_number())
  ) %>% 
  mutate(
    survive = factor(survive, levels = c("Dead", "Alive"))
  )

cells_pred

## # A tibble: 2,958 × 15
##    id       .pred_Alive .pred_Dead  .row .pred_class survive .config     correct
##    <chr>          <dbl>      <dbl> <int> <fct>       <fct>   <chr>       <lgl>  
##  1 Bootstr…       0.631     0.369      4 Alive       Alive   Preprocess… TRUE   
##  2 Bootstr…       0.917     0.0831     5 Alive       Alive   Preprocess… TRUE   
##  3 Bootstr…       0.837     0.163      6 Alive       Alive   Preprocess… TRUE   
##  4 Bootstr…       0.863     0.137      7 Alive       Alive   Preprocess… TRUE   
##  5 Bootstr…       0.782     0.218      9 Alive       Alive   Preprocess… TRUE   
##  6 Bootstr…       0.927     0.0727    15 Alive       Alive   Preprocess… TRUE   
##  7 Bootstr…       0.536     0.464     19 Alive       Alive   Preprocess… TRUE   
##  8 Bootstr…       0.731     0.269     28 Alive       Alive   Preprocess… TRUE   
##  9 Bootstr…       0.674     0.326     29 Alive       Alive   Preprocess… TRUE   
## 10 Bootstr…       0.786     0.214     31 Alive       Alive   Preprocess… TRUE   
## # … with 2,948 more rows, and 7 more variables: experiment_id <chr>,
## #   initial_gfp <dbl>, sos_gfp <dbl>, end_gfp <dbl>, initial_length <dbl>,
## #   sos_length <dbl>, end_length <dbl>
…
